<?xml version="1.0" encoding="UTF-8"?>
<svg width="480px" height="480px" viewBox="0 0 480 480" version="1.1" xmlns="http://www.w3.org/2000/svg" xmlns:xlink="http://www.w3.org/1999/xlink">
    <!-- Generator: Sketch 50.2 (55047) - http://www.bohemiancoding.com/sketch -->
    <title>both</title>
    <desc>Created with Sketch.</desc>
    <defs></defs>
    <g id="Page-1" stroke="none" stroke-width="1" fill="none" fill-rule="evenodd">
        <g id="both" fill="#CED4D9" fill-rule="nonzero">
            <g id="l-sidebar">
                <path d="M0,0 L0,480 L480,480 L480,0 L0,0 Z M80,464 L16,464 L16,80 L80,80 L80,464 Z M464,464 L96,464 L96,80 L464,80 L464,464 Z M464,64 L16,64 L16,16 L464,16 L464,64 Z" id="Shape"></path>
                <rect id="Rectangle-path" x="32" y="32" width="16" height="16"></rect>
                <rect id="Rectangle-path" x="64" y="32" width="16" height="16"></rect>
                <rect id="Rectangle-path" x="96" y="32" width="16" height="16"></rect>
                <rect id="Rectangle-path" x="432" y="32" width="16" height="16"></rect>
            </g>
            <g id="l-sidebar-copy" transform="translate(240.000000, 240.000000) scale(-1, 1) translate(-240.000000, -240.000000) ">
                <path d="M0,0 L0,480 L480,480 L480,0 L0,0 Z M80,464 L16,464 L16,80 L80,80 L80,464 Z M464,464 L96,464 L96,80 L464,80 L464,464 Z M464,64 L16,64 L16,16 L464,16 L464,64 Z" id="Shape"></path>
                <rect id="Rectangle-path" x="367" y="32" width="16" height="16"></rect>
                <rect id="Rectangle-path" x="399" y="32" width="16" height="16"></rect>
                <rect id="Rectangle-path" x="431" y="32" width="16" height="16"></rect>
                <rect id="Rectangle-path" x="31" y="32" width="16" height="16"></rect>
                <g id="Group" transform="translate(121.000000, 96.000000)">
                    <path d="M239,0 L0,0 L0,96 L239,96 L239,0 Z M227.619048,80 L11.3809524,80 L11.3809524,16 L227.619048,16 L227.619048,80 Z" id="Shape"></path>
                    <path d="M239,128 L0,128 L0,224 L239,224 L239,128 Z M227.619048,208 L11.3809524,208 L11.3809524,144 L227.619048,144 L227.619048,208 Z" id="Shape"></path>
                    <path d="M239,256 L0,256 L0,352 L239,352 L239,256 Z M227.619048,336 L11.3809524,336 L11.3809524,272 L227.619048,272 L227.619048,336 Z" id="Shape"></path>
                </g>
            </g>
        </g>
    </g>
</svg>