<?xml version="1.0" encoding="UTF-8"?>
<svg width="42px" height="42px" viewBox="0 0 42 42" version="1.1" xmlns="http://www.w3.org/2000/svg" xmlns:xlink="http://www.w3.org/1999/xlink">
    <!-- Generator: Sketch 53 (72520) - https://sketchapp.com -->
    <title>24-hours</title>
    <desc>Created with Sketch.</desc>
    <g id="Welcome" stroke="none" stroke-width="1" fill="none" fill-rule="evenodd">
        <g id="Desktop-HD-Copy" transform="translate(-842.000000, -2124.000000)" fill="#27176D">
            <g id="Why" transform="translate(-115.000000, 1665.000000)">
                <g id="Group-15" transform="translate(280.000000, 435.000000)">
                    <g id="Oval-Copy-5" transform="translate(653.000000, 0.000000)">
                        <g id="24-hours" transform="translate(24.000000, 24.000000)">
                            <path d="M18.6666667,24.6 L14.8712,24.6 C15.1679111,23.92584 15.7808,23.62496 16.6674667,23.18968 C18.0738667,22.49912 20,21.55344 20,18.6 C20,16.61496 18.2056,15 16,15 C13.7944,15 12,16.61496 12,18.6 C12,19.26272 12.5969778,19.8 13.3333333,19.8 C14.0696889,19.8 14.6666667,19.26272 14.6666667,18.6 C14.6666667,17.93832 15.2648,17.4 16,17.4 C16.7352,17.4 17.3511111,17.93832 17.3511111,18.6 C17.3511111,20.1288 16.6432,20.46768 15.3904,21.08272 C13.9595556,21.7852 12,22.74728 12,25.8 C12,26.46272 12.5969778,27 13.3333333,27 L18.6666667,27 C19.4030222,27 20,26.46272 20,25.8 C20,25.13728 19.4030222,24.6 18.6666667,24.6 Z" id="Path"></path>
                            <path d="M30.75,19.8 L29.5,19.8 L29.5,16.2 C29.5,15.53728 28.9403333,15 28.25,15 C27.5596667,15 27,15.53728 27,16.2 L27,19.8 L24.5,19.8 L24.5,16.2 C24.5,15.53728 23.9403333,15 23.25,15 C22.5596667,15 22,15.53728 22,16.2 L22,21 C22,21.66272 22.5596667,22.2 23.25,22.2 L27,22.2 L27,25.8 C27,26.46272 27.5596667,27 28.25,27 C28.9403333,27 29.5,26.46272 29.5,25.8 L29.5,22.2 L30.75,22.2 C31.4403333,22.2 32,21.66272 32,21 C32,20.33728 31.4403333,19.8 30.75,19.8 Z" id="Path"></path>
                            <path d="M40.7695312,19.8515625 C40.0899844,19.8515625 39.5554687,20.4024844 39.5554687,21.0820312 C39.5554687,31.2592383 31.1856562,39.5554687 20.9179687,39.5554687 C15.0920273,39.5554687 9.61447266,36.7405664 6.15242578,32.1398437 C8.74920703,32.1398437 8.95297266,32.1704414 9.27994922,31.9590469 C12.3904922,35.3000977 16.5624375,37.078125 20.9179687,37.078125 C29.736082,37.078125 37.078125,29.764957 37.078125,20.9179687 C37.078125,17.8243242 36.1825078,14.8590586 34.5124336,12.3046875 L38.3085937,12.3046875 C38.9881406,12.3046875 39.5390625,11.7537656 39.5390625,11.0742187 L39.5390625,6.15234375 C39.5390625,5.47279687 38.9881406,4.921875 38.3085937,4.921875 C37.6290469,4.921875 37.078125,5.47279687 37.078125,6.15234375 L37.078125,7.4484375 C33.12225,2.78504297 27.208043,0 20.9179687,0 C9.36140625,0 0,9.34901953 0,20.9179687 C0,21.5975156 0.550921875,22.1484375 1.23046875,22.1484375 C1.91001562,22.1484375 2.44453125,21.5975156 2.44453125,20.9179687 C2.44453125,10.7407617 10.7407617,2.44453125 20.9179687,2.44453125 C26.8337344,2.44453125 32.3708437,5.25943359 35.8451953,9.86015625 C33.1828711,9.86015625 33.1165078,9.78624609 32.7229219,10.0392305 C29.5716094,6.70178906 25.3335469,4.921875 20.9179687,4.921875 C12.0977227,4.921875 4.921875,12.0977227 4.921875,20.9179687 C4.921875,24.0691172 5.82733594,27.0941016 7.51340625,29.6953125 L3.69140625,29.6953125 C3.01185937,29.6953125 2.4609375,30.2462344 2.4609375,30.9257812 L2.4609375,35.8476562 C2.4609375,36.5272031 3.01185937,37.078125 3.69140625,37.078125 C4.37095312,37.078125 4.921875,36.5272031 4.921875,35.8476562 L4.921875,34.5612422 C8.90547656,39.2841094 14.7350273,42 20.9179687,42 C32.3941406,42 42,32.7288281 42,21.0820312 C42,20.4024844 41.4490781,19.8515625 40.7695312,19.8515625 Z M7.36640625,20.9179687 C7.36640625,13.4546836 13.4546836,7.36640625 20.9179687,7.36640625 C28.4717344,7.36640625 34.6335937,13.4546836 34.6335937,20.9179687 C34.6335937,28.3436836 28.3436836,34.6335937 20.9179687,34.6335937 C13.4546836,34.6335937 7.36640625,28.4717344 7.36640625,20.9179687 Z" id="Shape" fill-rule="nonzero"></path>
                        </g>
                    </g>
                </g>
            </g>
        </g>
    </g>
</svg>