<?xml version="1.0" encoding="UTF-8"?>
<svg width="42px" height="42px" viewBox="0 0 42 42" version="1.1" xmlns="http://www.w3.org/2000/svg" xmlns:xlink="http://www.w3.org/1999/xlink">
    <!-- Generator: Sketch 53 (72520) - https://sketchapp.com -->
    <title>message</title>
    <desc>Created with Sketch.</desc>
    <g id="Welcome" stroke="none" stroke-width="1" fill="none" fill-rule="evenodd">
        <g id="Desktop-HD-Copy" transform="translate(-552.000000, -2124.000000)" fill="#27176D">
            <g id="Why" transform="translate(-115.000000, 1665.000000)">
                <g id="Group-15" transform="translate(280.000000, 435.000000)">
                    <g id="Active" transform="translate(363.000000, 0.000000)">
                        <g id="message" transform="translate(24.000000, 24.000000)">
                            <path d="M40.4703541,0.0354377372 C40.4587975,0.0382443112 40.4471583,0.0405556073 40.4356017,0.0436923664 L1.91188473,10.5500193 C0.943686248,10.8140849 0.677305781,12.0633404 1.4503622,12.7002676 L13.4402073,22.577922 L11.2326421,29.2004459 C10.9108723,30.1659073 11.8319362,31.0888574 12.7988965,30.7666792 L19.4215095,28.5591437 L29.2992967,40.5488275 C29.938874,41.3250103 31.1859176,41.0535981 31.449574,40.0873112 L41.9559597,1.56402997 C41.9592616,1.55189566 41.961738,1.53959626 41.9646272,1.52737941 C42.1819745,0.619782936 41.3625265,-0.179925538 40.4703541,0.0354377372 Z M4.871044,12.3098237 L35.394762,3.9852778 L14.8908953,20.5645354 L4.871044,12.3098237 Z M19.1013081,26.0554322 L14.3650684,27.6342125 L15.94387,22.8980365 L32.4415461,9.5578954 L19.1013081,26.0554322 Z M29.6895809,37.1280266 L21.4346755,27.1083101 L38.0143213,6.60463672 L29.6895809,37.1280266 Z" id="Shape" fill-rule="nonzero"></path>
                            <path d="M4.57049241,37.4300838 C3.99817388,36.8562306 3.07070733,36.8567206 2.49897469,37.4310638 L0.428531101,39.5107916 C-0.143201541,40.0850368 -0.142810947,41.0157843 0.429507587,41.5895395 C0.975753941,42.1372282 1.9552672,42.1367383 2.50092766,41.5885595 L4.5714689,39.5088317 C5.14320154,38.9345866 5.14281095,38.003839 4.57049241,37.4300838 Z" id="Path"></path>
                            <path d="M9.56710115,32.4334526 C8.99026375,31.8551539 8.05567104,31.8555489 7.47932575,32.4344403 L5.39253455,34.5306372 C4.86874533,35.0567853 4.86923743,36.1001923 5.39351874,36.6258465 C5.8914236,37.1250304 6.98358612,37.1247341 7.48129414,36.6248588 L9.56808534,34.5286618 C10.1443322,33.9498693 10.1439385,33.0117513 9.56710115,32.4334526 Z" id="Path"></path>
                        </g>
                    </g>
                </g>
            </g>
        </g>
    </g>
</svg>